\relax 
\providecommand\hyper@newdestlabel[2]{}
\providecommand\HyperFirstAtBeginDocument{\AtBeginDocument}
\HyperFirstAtBeginDocument{\ifx\hyper@anchor\@undefined
\global\let\oldcontentsline\contentsline
\gdef\contentsline#1#2#3#4{\oldcontentsline{#1}{#2}{#3}}
\global\let\oldnewlabel\newlabel
\gdef\newlabel#1#2{\newlabelxx{#1}#2}
\gdef\newlabelxx#1#2#3#4#5#6{\oldnewlabel{#1}{{#2}{#3}}}
\AtEndDocument{\ifx\hyper@anchor\@undefined
\let\contentsline\oldcontentsline
\let\newlabel\oldnewlabel
\fi}
\fi}
\global\let\hyper@last\relax 
\gdef\HyperFirstAtBeginDocument#1{#1}
\providecommand\HyField@AuxAddToFields[1]{}
\providecommand\HyField@AuxAddToCoFields[2]{}
\citation{Magariyama}
\citation{Bubble1}
\citation{Bubble1}
\citation{Rahman2}
\citation{Object_Closure}
\citation{Object_Closure}
\citation{Object_Closure}
\citation{Object_Closure}
\citation{Object_Closure}
\citation{Object_Closure}
\citation{Rahman2}
\citation{Motion_Planning}
\citation{Stable_Path}
\citation{Dynamic_Coop}
\citation{Coop_Multi}
\citation{Caging_Planner}
\citation{Motion_Push}
\@writefile{toc}{\contentsline {chapter}{\numberline {第1章}はじめに}{1}{chapter.1}\protected@file@percent }
\@writefile{lof}{\addvspace {10\jsc@mpt }}
\@writefile{lot}{\addvspace {10\jsc@mpt }}
\@writefile{toc}{\contentsline {section}{\numberline {1.1}研究背景}{1}{section.1.1}\protected@file@percent }
\@writefile{toc}{\contentsline {section}{\numberline {1.2}複数移動ロボットによる協調搬送}{1}{section.1.2}\protected@file@percent }
\providecommand*\caption@xref[2]{\@setref\relax\@undefined{#1}}
\newlabel{KIVA}{{1.1a}{1}{Subfigure 1 1.1a}{subfigure.1.1.1}{}}
\newlabel{sub@KIVA}{{(a)}{a}{Subfigure 1 1.1a\relax }{subfigure.1.1.1}{}}
\newlabel{AGV}{{1.1b}{1}{Subfigure 1 1.1b}{subfigure.1.1.2}{}}
\newlabel{sub@AGV}{{(b)}{b}{Subfigure 1 1.1b\relax }{subfigure.1.1.2}{}}
\newlabel{HITACHI}{{1.1c}{1}{Subfigure 1 1.1c}{subfigure.1.1.3}{}}
\newlabel{sub@HITACHI}{{(c)}{c}{Subfigure 1 1.1c\relax }{subfigure.1.1.3}{}}
\newlabel{Tranceportation_Robots}{{1.1}{1}{}{figure.caption.4}{}}
\@writefile{toc}{\contentsline {subsection}{\numberline {1.2.1}Grasping}{1}{subsection.1.2.1}\protected@file@percent }
\citation{Grasp1}
\citation{Grasp2}
\citation{Pushing1}
\newlabel{Coop_Trance}{{1.2}{2}{}{figure.caption.5}{}}
\@writefile{toc}{\contentsline {subsection}{\numberline {1.2.2}Pushing}{2}{subsection.1.2.2}\protected@file@percent }
\@writefile{toc}{\contentsline {subsection}{\numberline {1.2.3}Caging}{2}{subsection.1.2.3}\protected@file@percent }
\citation{Dynamic_Caging}
\citation{Bubble1}
\citation{Bubble1}
\citation{Rahman1}
\citation{Rahman2}
\citation{Noboru1}
\citation{Noboru}
\citation{Caging_Formation}
\citation{Magariyama}
\newlabel{Grasping}{{1.3a}{3}{Subfigure 1 1.3a}{subfigure.1.3.1}{}}
\newlabel{sub@Grasping}{{(a)}{a}{Subfigure 1 1.3a\relax }{subfigure.1.3.1}{}}
\newlabel{Pushing}{{1.3b}{3}{Subfigure 1 1.3b}{subfigure.1.3.2}{}}
\newlabel{sub@Pushing}{{(b)}{b}{Subfigure 1 1.3b\relax }{subfigure.1.3.2}{}}
\newlabel{Caging}{{1.3c}{3}{Subfigure 1 1.3c}{subfigure.1.3.3}{}}
\newlabel{sub@Caging}{{(c)}{c}{Subfigure 1 1.3c\relax }{subfigure.1.3.3}{}}
\newlabel{Coop_Formation}{{1.3}{3}{}{figure.caption.6}{}}
\@writefile{toc}{\contentsline {section}{\numberline {1.3}マイクロロボット}{3}{section.1.3}\protected@file@percent }
\@writefile{toc}{\contentsline {section}{\numberline {1.4}関連研究}{3}{section.1.4}\protected@file@percent }
\@writefile{lof}{\contentsline {figure}{\numberline {1.4}{\ignorespaces Assembly of 20\si {\micro \meter } Diameter Beads with Microrobots\cite  {Bubble1}.\relax }}{4}{figure.caption.7}\protected@file@percent }
\newlabel{Bubble_Pictures1}{{1.4}{4}{Assembly of 20\si {\micro \meter } Diameter Beads with Microrobots\cite {Bubble1}.\relax }{figure.caption.7}{}}
\@writefile{toc}{\contentsline {section}{\numberline {1.5}研究目的}{4}{section.1.5}\protected@file@percent }
\@writefile{toc}{\contentsline {section}{\numberline {1.6}論文の構成}{4}{section.1.6}\protected@file@percent }
\citation{Bubble1}
\citation{Rahman2}
\citation{Bubble1}
\citation{Bubble1}
\citation{Rahman2}
\citation{Rahman2}
\citation{Bubble1}
\citation{Noboru1}
\@writefile{toc}{\contentsline {chapter}{\numberline {第2章}光熱マイクロロボット}{7}{chapter.2}\protected@file@percent }
\@writefile{lof}{\addvspace {10\jsc@mpt }}
\@writefile{lot}{\addvspace {10\jsc@mpt }}
\@writefile{toc}{\contentsline {section}{\numberline {2.1}ハードウェア構成}{7}{section.2.1}\protected@file@percent }
\@writefile{lof}{\contentsline {figure}{\numberline {2.1}{\ignorespaces マイクロバブルシステムのハードウェア \cite  {Bubble1}\relax }}{7}{figure.caption.8}\protected@file@percent }
\newlabel{Hardware_of_Bubble}{{2.1}{7}{マイクロバブルシステムのハードウェア \cite {Bubble1}\relax }{figure.caption.8}{}}
\@writefile{lof}{\contentsline {figure}{\numberline {2.2}{\ignorespaces マイクロバブルシステム\cite  {Rahman2}\relax }}{8}{figure.caption.9}\protected@file@percent }
\newlabel{System_of_Bubble}{{2.2}{8}{マイクロバブルシステム\cite {Rahman2}\relax }{figure.caption.9}{}}
\@writefile{toc}{\contentsline {section}{\numberline {2.2}マイクロバブルロボットの動作原理と振る舞い}{8}{section.2.2}\protected@file@percent }
\@writefile{lof}{\contentsline {figure}{\numberline {2.3}{\ignorespaces 側面から見たチェンバー内模式図\relax }}{8}{figure.caption.10}\protected@file@percent }
\newlabel{Side_view_of_chanber}{{2.3}{8}{側面から見たチェンバー内模式図\relax }{figure.caption.10}{}}
\@writefile{toc}{\contentsline {section}{\numberline {2.3}まとめ}{9}{section.2.3}\protected@file@percent }
\citation{Noboru}
\citation{Matlab}
\citation{IMGPro}
\citation{IMGTool}
\@writefile{toc}{\contentsline {chapter}{\numberline {第3章}マイクロバブルロボットの検出と識別}{11}{chapter.3}\protected@file@percent }
\@writefile{lof}{\addvspace {10\jsc@mpt }}
\@writefile{lot}{\addvspace {10\jsc@mpt }}
\@writefile{toc}{\contentsline {section}{\numberline {3.1}マイクロバブルロボットの検出アルゴリズム}{11}{section.3.1}\protected@file@percent }
\@writefile{lof}{\contentsline {figure}{\numberline {3.1}{\ignorespaces バブルの検出アルゴリズム\relax }}{11}{figure.caption.11}\protected@file@percent }
\newlabel{Algorithm_of_Detection}{{3.1}{11}{バブルの検出アルゴリズム\relax }{figure.caption.11}{}}
\citation{Binarize}
\citation{RGB2G}
\citation{Adaptive}
\@writefile{toc}{\contentsline {subsection}{\numberline {3.1.1}変数初期化}{12}{subsection.3.1.1}\protected@file@percent }
\@writefile{toc}{\contentsline {subsection}{\numberline {3.1.2}画像読み込み}{12}{subsection.3.1.2}\protected@file@percent }
\@writefile{toc}{\contentsline {subsection}{\numberline {3.1.3}グレースケール化}{12}{subsection.3.1.3}\protected@file@percent }
\@writefile{toc}{\contentsline {subsection}{\numberline {3.1.4}二値化}{12}{subsection.3.1.4}\protected@file@percent }
\@writefile{toc}{\contentsline {subsection}{\numberline {3.1.5}ハフ変換}{12}{subsection.3.1.5}\protected@file@percent }
\newlabel{Hough_Circle}{{3.1}{13}{ハフ変換}{equation.3.1.1}{}}
\newlabel{Pro_OriginalIMG}{{3.2a}{13}{Subfigure 3 3.2a}{subfigure.3.2.1}{}}
\newlabel{sub@Pro_OriginalIMG}{{(a)}{a}{Subfigure 3 3.2a\relax }{subfigure.3.2.1}{}}
\newlabel{Pro_GrayIMG}{{3.2b}{13}{Subfigure 3 3.2b}{subfigure.3.2.2}{}}
\newlabel{sub@Pro_GrayIMG}{{(b)}{b}{Subfigure 3 3.2b\relax }{subfigure.3.2.2}{}}
\newlabel{Pro_Binaly}{{3.2c}{13}{Subfigure 3 3.2c}{subfigure.3.2.3}{}}
\newlabel{sub@Pro_Binaly}{{(c)}{c}{Subfigure 3 3.2c\relax }{subfigure.3.2.3}{}}
\newlabel{Pro_Hough}{{3.2d}{13}{Subfigure 3 3.2d}{subfigure.3.2.4}{}}
\newlabel{sub@Pro_Hough}{{(d)}{d}{Subfigure 3 3.2d\relax }{subfigure.3.2.4}{}}
\newlabel{Bubble_Process_in_Detecter}{{3.2}{13}{}{figure.caption.12}{}}
\@writefile{toc}{\contentsline {section}{\numberline {3.2}動画処理アルゴリズム}{13}{section.3.2}\protected@file@percent }
\@writefile{toc}{\contentsline {section}{\numberline {3.3}マイクロバブルロボットの識別とトラッキング}{13}{section.3.3}\protected@file@percent }
\@writefile{lof}{\contentsline {figure}{\numberline {3.3}{\ignorespaces 動画像処理アルゴリズム\relax }}{14}{figure.caption.13}\protected@file@percent }
\newlabel{Algorithm_of_Movie_Pro}{{3.3}{14}{動画像処理アルゴリズム\relax }{figure.caption.13}{}}
\@writefile{toc}{\contentsline {subsection}{\numberline {3.3.1}欠損値が存在する場合の処理}{14}{subsection.3.3.1}\protected@file@percent }
\@writefile{toc}{\contentsline {subsection}{\numberline {3.3.2}バブルが増加する動画の処理}{14}{subsection.3.3.2}\protected@file@percent }
\@writefile{lof}{\contentsline {figure}{\numberline {3.4}{\ignorespaces バブル識別アルゴリズム\relax }}{15}{figure.caption.14}\protected@file@percent }
\newlabel{Algorithm_of_Identify}{{3.4}{15}{バブル識別アルゴリズム\relax }{figure.caption.14}{}}
\@writefile{lof}{\contentsline {figure}{\numberline {3.5}{\ignorespaces 探索範囲外へ移動したバブルと基準となるバブル\relax }}{15}{figure.caption.15}\protected@file@percent }
\newlabel{Out_of_find_range}{{3.5}{15}{探索範囲外へ移動したバブルと基準となるバブル\relax }{figure.caption.15}{}}
\@writefile{toc}{\contentsline {section}{\numberline {3.4}データのエラー訂正処理}{15}{section.3.4}\protected@file@percent }
\@writefile{toc}{\contentsline {subsection}{\numberline {3.4.1}画面外へ移動した場合の処理}{15}{subsection.3.4.1}\protected@file@percent }
\citation{Hample}
\newlabel{Origin_Data}{{3.6a}{16}{Subfigure 3 3.6a}{subfigure.3.6.1}{}}
\newlabel{sub@Origin_Data}{{(a)}{a}{Subfigure 3 3.6a\relax }{subfigure.3.6.1}{}}
\newlabel{Not_filteringData}{{3.6}{16}{}{figure.caption.16}{}}
\@writefile{toc}{\contentsline {subsection}{\numberline {3.4.2}モーションブラーの除去}{16}{subsection.3.4.2}\protected@file@percent }
\newlabel{Motion_Blur_Image}{{3.7a}{16}{Subfigure 3 3.7a}{subfigure.3.7.1}{}}
\newlabel{sub@Motion_Blur_Image}{{(a)}{a}{Subfigure 3 3.7a\relax }{subfigure.3.7.1}{}}
\newlabel{Motion_Blur_level}{{3.7b}{16}{Subfigure 3 3.7b}{subfigure.3.7.2}{}}
\newlabel{sub@Motion_Blur_level}{{(b)}{b}{Subfigure 3 3.7b\relax }{subfigure.3.7.2}{}}
\@writefile{toc}{\contentsline {subsection}{\numberline {3.4.3}フィルタリング後のデータ}{17}{subsection.3.4.3}\protected@file@percent }
\@writefile{lof}{\contentsline {figure}{\numberline {3.8}{\ignorespaces 単体のバブル駆動実験における直径の変化(フィルタ処理後)\relax }}{17}{figure.caption.18}\protected@file@percent }
\newlabel{Single_Dir}{{3.8}{17}{単体のバブル駆動実験における直径の変化(フィルタ処理後)\relax }{figure.caption.18}{}}
\@writefile{toc}{\contentsline {section}{\numberline {3.5}まとめ}{17}{section.3.5}\protected@file@percent }
\citation{Magariyama}
\citation{Bubble1}
\citation{Caging_Formation}
\citation{Object_Closure}
\citation{Object_Closure}
\citation{Object_Closure}
\citation{Object_Closure}
\@writefile{toc}{\contentsline {chapter}{\numberline {第4章}Cagingの定式化と判定\cite  {Magariyama} }{19}{chapter.4}\protected@file@percent }
\@writefile{lof}{\addvspace {10\jsc@mpt }}
\@writefile{lot}{\addvspace {10\jsc@mpt }}
\@writefile{toc}{\contentsline {section}{\numberline {4.1}C-Closure Object}{19}{section.4.1}\protected@file@percent }
\newlabel{C_CLSi}{{4.1}{19}{C-Closure Object}{equation.4.1.1}{}}
\@writefile{lof}{\contentsline {figure}{\numberline {4.1}{\ignorespaces The Constrains Imposed by Ai. The Shaded Area Denots Ccls i, C-Closure Object.\cite  {Object_Closure}\relax }}{19}{figure.caption.19}\protected@file@percent }
\newlabel{C-Closure_Object}{{4.1}{19}{The Constrains Imposed by Ai. The Shaded Area Denots Ccls i, C-Closure Object.\cite {Object_Closure}\relax }{figure.caption.19}{}}
\citation{Magariyama}
\@writefile{lof}{\contentsline {figure}{\numberline {4.2}{\ignorespaces C-Closure Object($C_{cls_i} $) と C-Closure Object Region($ C_{cls} $)\cite  {Object_Closure}\relax }}{20}{figure.caption.20}\protected@file@percent }
\newlabel{Explane_Cls_and_Region}{{4.2}{20}{C-Closure Object($C_{cls_i} $) と C-Closure Object Region($ C_{cls} $)\cite {Object_Closure}\relax }{figure.caption.20}{}}
\@writefile{lof}{\contentsline {figure}{\numberline {4.3}{\ignorespaces Object Closure Condition in Defferent Orientation.\relax }}{20}{figure.caption.21}\protected@file@percent }
\newlabel{OCC_in_DO}{{4.3}{20}{Object Closure Condition in Defferent Orientation.\relax }{figure.caption.21}{}}
\@writefile{toc}{\contentsline {section}{\numberline {4.2}Object Closure}{20}{section.4.2}\protected@file@percent }
\citation{Object_Closure}
\citation{Object_Closure}
\citation{Object_Closure}
\citation{Object_Closure}
\@writefile{lof}{\contentsline {figure}{\numberline {4.4}{\ignorespaces Object Closure Condition in Defferent Orientation.)\cite  {Object_Closure}\relax }}{21}{figure.caption.22}\protected@file@percent }
\newlabel{OCC_in_Diff}{{4.4}{21}{Object Closure Condition in Defferent Orientation.)\cite {Object_Closure}\relax }{figure.caption.22}{}}
\@writefile{toc}{\contentsline {section}{\numberline {4.3}CC-Closure ObjectとObject Closrueの十分条件判}{21}{section.4.3}\protected@file@percent }
\@writefile{lof}{\contentsline {figure}{\numberline {4.5}{\ignorespaces C-Closure Object and CC-Closure Object)\cite  {Object_Closure}\relax }}{21}{figure.caption.23}\protected@file@percent }
\newlabel{CCO_and_CC-C}{{4.5}{21}{C-Closure Object and CC-Closure Object)\cite {Object_Closure}\relax }{figure.caption.23}{}}
\citation{Object_Closure}
\citation{Object_Closure}
\citation{Object_Closure}
\citation{Object_Closure}
\citation{Magariyama}
\newlabel{CC_cls_(ij)}{{4.6}{22}{CC-Closure ObjectとObject Closrueの十分条件判}{equation.4.3.6}{}}
\@writefile{lof}{\contentsline {figure}{\numberline {4.6}{\ignorespaces C-Closure Object (Ccls i) and CC-Closure Object (CCcls ij)\cite  {Object_Closure}\relax }}{22}{figure.caption.24}\protected@file@percent }
\newlabel{OCC_in_DO}{{4.6}{22}{C-Closure Object (Ccls i) and CC-Closure Object (CCcls ij)\cite {Object_Closure}\relax }{figure.caption.24}{}}
\@writefile{lof}{\contentsline {figure}{\numberline {4.7}{\ignorespaces A slice of CC-Closure Object is represent \cite  {Object_Closure}\relax }}{22}{figure.caption.25}\protected@file@percent }
\newlabel{CC_Cls-REP}{{4.7}{22}{A slice of CC-Closure Object is represent \cite {Object_Closure}\relax }{figure.caption.25}{}}
\@writefile{toc}{\contentsline {section}{\numberline {4.4}まとめ}{23}{section.4.4}\protected@file@percent }
\@writefile{toc}{\contentsline {chapter}{\numberline {第5章}ボケの影響によるバブル直径計測の信頼性評価}{25}{chapter.5}\protected@file@percent }
\@writefile{lof}{\addvspace {10\jsc@mpt }}
\@writefile{lot}{\addvspace {10\jsc@mpt }}
\@writefile{toc}{\contentsline {section}{\numberline {5.1}ピントのズレによって生ずる計測値の変動}{25}{section.5.1}\protected@file@percent }
\@writefile{toc}{\contentsline {subsection}{\numberline {5.1.1}実験動画}{25}{subsection.5.1.1}\protected@file@percent }
\@writefile{lof}{\contentsline {figure}{\numberline {5.1}{\ignorespaces 処理実行前のフレーム情報\relax }}{25}{figure.caption.26}\protected@file@percent }
\newlabel{Original_Pictures}{{5.1}{25}{処理実行前のフレーム情報\relax }{figure.caption.26}{}}
\citation{Otsu}
\@writefile{lof}{\contentsline {figure}{\numberline {5.2}{\ignorespaces ブラー処理後の画像情報\relax }}{26}{figure.caption.27}\protected@file@percent }
\newlabel{Blured_Pictures}{{5.2}{26}{ブラー処理後の画像情報\relax }{figure.caption.27}{}}
\@writefile{toc}{\contentsline {subsection}{\numberline {5.1.2}解析}{26}{subsection.5.1.2}\protected@file@percent }
\newlabel{Result_Blurtest}{{5.1}{26}{}{table.caption.28}{}}
\@writefile{toc}{\contentsline {subsection}{\numberline {5.1.3}結論}{26}{subsection.5.1.3}\protected@file@percent }
\@writefile{lof}{\contentsline {figure}{\numberline {5.3}{\ignorespaces ブラー実験の結果\relax }}{27}{figure.caption.29}\protected@file@percent }
\newlabel{Blur_test_Result_Origin}{{5.3}{27}{ブラー実験の結果\relax }{figure.caption.29}{}}
\@writefile{toc}{\contentsline {section}{\numberline {5.2}画像のボケが存在する場合の直径計測手法の妥当性の検証}{27}{section.5.2}\protected@file@percent }
\@writefile{toc}{\contentsline {subsubsection}{閾値の手法}{27}{section*.30}\protected@file@percent }
\@writefile{toc}{\contentsline {subsection}{\numberline {5.2.1}解析結果}{27}{subsection.5.2.1}\protected@file@percent }
\@writefile{lof}{\contentsline {figure}{\numberline {5.4}{\ignorespaces バブルのグレー画像\relax }}{28}{figure.caption.31}\protected@file@percent }
\newlabel{GrayBubble}{{5.4}{28}{バブルのグレー画像\relax }{figure.caption.31}{}}
\@writefile{lof}{\contentsline {figure}{\numberline {5.5}{\ignorespaces バブルの輝度の変化\relax }}{28}{figure.caption.31}\protected@file@percent }
\newlabel{Bubble_Bright}{{5.5}{28}{バブルの輝度の変化\relax }{figure.caption.31}{}}
\@writefile{lof}{\contentsline {figure}{\numberline {5.6}{\ignorespaces 閾値毎の検出した直径の分散\relax }}{28}{figure.caption.32}\protected@file@percent }
\newlabel{Bubble_Bright}{{5.6}{28}{閾値毎の検出した直径の分散\relax }{figure.caption.32}{}}
\@writefile{toc}{\contentsline {subsection}{\numberline {5.2.2}結論}{28}{subsection.5.2.2}\protected@file@percent }
\@writefile{toc}{\contentsline {section}{\numberline {5.3}まとめ}{28}{section.5.3}\protected@file@percent }
\citation{Rahman2}
\citation{Noboru}
\@writefile{toc}{\contentsline {chapter}{\numberline {第6章}バブル直径の変化の特性解析と予測}{29}{chapter.6}\protected@file@percent }
\@writefile{lof}{\addvspace {10\jsc@mpt }}
\@writefile{lot}{\addvspace {10\jsc@mpt }}
\@writefile{toc}{\contentsline {section}{\numberline {6.1}バブル直径の変化特性の解析}{29}{section.6.1}\protected@file@percent }
\@writefile{toc}{\contentsline {subsection}{\numberline {6.1.1}バブルの直径変化傾向を基にした変化予測}{29}{subsection.6.1.1}\protected@file@percent }
\newlabel{Pow}{{6.1}{29}{バブルの直径変化傾向を基にした変化予測}{equation.6.1.1}{}}
\newlabel{Exp}{{6.2}{29}{バブルの直径変化傾向を基にした変化予測}{equation.6.1.2}{}}
\newlabel{Log}{{6.3}{29}{バブルの直径変化傾向を基にした変化予測}{equation.6.1.3}{}}
\newlabel{Decay}{{6.4}{29}{バブルの直径変化傾向を基にした変化予測}{equation.6.1.4}{}}
\@writefile{toc}{\contentsline {subsection}{\numberline {6.1.2}関数モデルの評価}{30}{subsection.6.1.2}\protected@file@percent }
\@writefile{lof}{\contentsline {figure}{\numberline {6.1}{\ignorespaces バブルの直径予測関数のアルゴリズム\relax }}{30}{figure.caption.33}\protected@file@percent }
\newlabel{Prediction_Algorithm}{{6.1}{30}{バブルの直径予測関数のアルゴリズム\relax }{figure.caption.33}{}}
\newlabel{Result_FunctionTest1}{{6.1}{30}{}{table.caption.34}{}}
\@writefile{toc}{\contentsline {section}{\numberline {6.2}予測の信頼性評価}{30}{section.6.2}\protected@file@percent }
\newlabel{Result_FunctionTest2}{{6.2}{31}{}{table.caption.35}{}}
\@writefile{toc}{\contentsline {subsection}{\numberline {6.2.1}標本化期間と予測信頼性の関係評価}{31}{subsection.6.2.1}\protected@file@percent }
\@writefile{lof}{\contentsline {figure}{\numberline {6.2}{\ignorespaces 各データにおける標本化時間と予測時間の比率による予測精度の変化\relax }}{31}{figure.caption.36}\protected@file@percent }
\newlabel{Resule_Trast_tests}{{6.2}{31}{各データにおける標本化時間と予測時間の比率による予測精度の変化\relax }{figure.caption.36}{}}
\newlabel{Predict_test_ratio}{{6.3}{31}{}{table.caption.37}{}}
\@writefile{toc}{\contentsline {subsection}{\numberline {6.2.2}標本化期間による予測精度の変化}{32}{subsection.6.2.2}\protected@file@percent }
\@writefile{toc}{\contentsline {subsection}{\numberline {6.2.3}結論}{32}{subsection.6.2.3}\protected@file@percent }
\@writefile{toc}{\contentsline {section}{\numberline {6.3}まとめ}{32}{section.6.3}\protected@file@percent }
\newlabel{Resule_Trast_Bubble1}{{6.3a}{33}{Subfigure 6 6.3a}{subfigure.6.3.1}{}}
\newlabel{sub@Resule_Trast_Bubble1}{{(a)}{a}{Subfigure 6 6.3a\relax }{subfigure.6.3.1}{}}
\newlabel{Result_Trast_Bubble2}{{6.3b}{33}{Subfigure 6 6.3b}{subfigure.6.3.2}{}}
\newlabel{sub@Result_Trast_Bubble2}{{(b)}{b}{Subfigure 6 6.3b\relax }{subfigure.6.3.2}{}}
\newlabel{Result_Trast_Bubble3}{{6.3c}{33}{Subfigure 6 6.3c}{subfigure.6.3.3}{}}
\newlabel{sub@Result_Trast_Bubble3}{{(c)}{c}{Subfigure 6 6.3c\relax }{subfigure.6.3.3}{}}
\newlabel{Result_Trast_Bubble4}{{6.3d}{33}{Subfigure 6 6.3d}{subfigure.6.3.4}{}}
\newlabel{sub@Result_Trast_Bubble4}{{(d)}{d}{Subfigure 6 6.3d\relax }{subfigure.6.3.4}{}}
\@writefile{lof}{\contentsline {figure}{\numberline {6.3}{\ignorespaces サンプリング期間による予測値と実測値の差分の変化\relax }}{33}{figure.caption.38}\protected@file@percent }
\newlabel{Result_of_Trast_Origin}{{6.3}{33}{サンプリング期間による予測値と実測値の差分の変化\relax }{figure.caption.38}{}}
\newlabel{Trast_Bubble1}{{6.4a}{34}{Subfigure 6 6.4a}{subfigure.6.4.1}{}}
\newlabel{sub@Trast_Bubble1}{{(a)}{a}{Subfigure 6 6.4a\relax }{subfigure.6.4.1}{}}
\newlabel{Trast_Bubble2}{{6.4b}{34}{Subfigure 6 6.4b}{subfigure.6.4.2}{}}
\newlabel{sub@Trast_Bubble2}{{(b)}{b}{Subfigure 6 6.4b\relax }{subfigure.6.4.2}{}}
\newlabel{Trast_Bubble3}{{6.4c}{34}{Subfigure 6 6.4c}{subfigure.6.4.3}{}}
\newlabel{sub@Trast_Bubble3}{{(c)}{c}{Subfigure 6 6.4c\relax }{subfigure.6.4.3}{}}
\newlabel{Trast_Bubble4}{{6.4d}{34}{Subfigure 6 6.4d}{subfigure.6.4.4}{}}
\newlabel{sub@Trast_Bubble4}{{(d)}{d}{Subfigure 6 6.4d\relax }{subfigure.6.4.4}{}}
\@writefile{lof}{\contentsline {figure}{\numberline {6.4}{\ignorespaces サンプリング期間による予測値と実測値の差分の変化の平均と分散\relax }}{34}{figure.caption.39}\protected@file@percent }
\newlabel{Result_of_trastness}{{6.4}{34}{サンプリング期間による予測値と実測値の差分の変化の平均と分散\relax }{figure.caption.39}{}}
\@writefile{toc}{\contentsline {chapter}{\numberline {第7章}マイクロバブルロボットにおける直径の変化特性}{35}{chapter.7}\protected@file@percent }
\@writefile{lof}{\addvspace {10\jsc@mpt }}
\@writefile{lot}{\addvspace {10\jsc@mpt }}
\@writefile{toc}{\contentsline {section}{\numberline {7.1}実験動画}{35}{section.7.1}\protected@file@percent }
\@writefile{toc}{\contentsline {subsection}{\numberline {7.1.1}複数バブルの手動操作による駆動}{35}{subsection.7.1.1}\protected@file@percent }
\newlabel{Openloop_Start}{{7.1a}{35}{Subfigure 7 7.1a}{subfigure.7.1.1}{}}
\newlabel{sub@Openloop_Start}{{(a)}{a}{Subfigure 7 7.1a\relax }{subfigure.7.1.1}{}}
\newlabel{Openloop_Dropping}{{7.1b}{35}{Subfigure 7 7.1b}{subfigure.7.1.2}{}}
\newlabel{sub@Openloop_Dropping}{{(b)}{b}{Subfigure 7 7.1b\relax }{subfigure.7.1.2}{}}
\newlabel{Openloop_Dropied}{{7.1c}{35}{Subfigure 7 7.1c}{subfigure.7.1.3}{}}
\newlabel{sub@Openloop_Dropied}{{(c)}{c}{Subfigure 7 7.1c\relax }{subfigure.7.1.3}{}}
\newlabel{Manual video}{{7.1}{35}{}{figure.caption.40}{}}
\@writefile{toc}{\contentsline {subsection}{\numberline {7.1.2}単体バブルの手動操作による駆動}{35}{subsection.7.1.2}\protected@file@percent }
\newlabel{OpenLoop_Traject}{{7.2}{36}{}{figure.caption.41}{}}
\newlabel{SingleBubble_Traject}{{7.3}{36}{}{figure.caption.42}{}}
\@writefile{toc}{\contentsline {section}{\numberline {7.2}バブル直径の変化傾向と画像の背景輝度との相関}{36}{section.7.2}\protected@file@percent }
\@writefile{toc}{\contentsline {subsection}{\numberline {7.2.1}輝度との相関の仮定}{36}{subsection.7.2.1}\protected@file@percent }
\@writefile{toc}{\contentsline {subsection}{\numberline {7.2.2}解析手法}{37}{subsection.7.2.2}\protected@file@percent }
\@writefile{toc}{\contentsline {subsection}{\numberline {7.2.3}結果}{37}{subsection.7.2.3}\protected@file@percent }
\newlabel{Anapyze_of_coor}{{7.1}{37}{}{table.caption.43}{}}
\newlabel{Analyze_Traject}{{7.4}{37}{}{figure.caption.44}{}}
\@writefile{toc}{\contentsline {section}{\numberline {7.3}バブル直径の変化傾向とチェンバ上の位置との相関}{37}{section.7.3}\protected@file@percent }
\@writefile{toc}{\contentsline {subsection}{\numberline {7.3.1}解析手法}{38}{subsection.7.3.1}\protected@file@percent }
\newlabel{Area_and_move}{{7.2}{38}{}{table.caption.45}{}}
\@writefile{lof}{\contentsline {figure}{\numberline {7.5}{\ignorespaces バブル直径の変化と近似曲線との差分\relax }}{38}{figure.caption.46}\protected@file@percent }
\newlabel{Compare_Bubble2Diff}{{7.5}{38}{バブル直径の変化と近似曲線との差分\relax }{figure.caption.46}{}}
\@writefile{lof}{\contentsline {figure}{\numberline {7.6}{\ignorespaces 空間毎に分割して近似したバブル直径の変化\relax }}{39}{figure.caption.47}\protected@file@percent }
\newlabel{Dived_LandR}{{7.6}{39}{空間毎に分割して近似したバブル直径の変化\relax }{figure.caption.47}{}}
\@writefile{toc}{\contentsline {subsection}{\numberline {7.3.2}結果}{39}{subsection.7.3.2}\protected@file@percent }
\@writefile{toc}{\contentsline {section}{\numberline {7.4}まとめ}{39}{section.7.4}\protected@file@percent }
\citation{Rahman2}
\citation{Rahman2}
\@writefile{toc}{\contentsline {chapter}{\numberline {第8章}バブルによるCaging formation}{41}{chapter.8}\protected@file@percent }
\@writefile{lof}{\addvspace {10\jsc@mpt }}
\@writefile{lot}{\addvspace {10\jsc@mpt }}
\@writefile{toc}{\contentsline {section}{\numberline {8.1}Bubble Formationの分類}{41}{section.8.1}\protected@file@percent }
\newlabel{Each_Phase_Data}{{8.1}{41}{}{table.caption.49}{}}
\@writefile{lof}{\contentsline {figure}{\numberline {8.1}{\ignorespaces 動作によるPhaseへの分類 \cite  {Rahman2}\relax }}{42}{figure.caption.48}\protected@file@percent }
\newlabel{Each_Phase}{{8.1}{42}{動作によるPhaseへの分類 \cite {Rahman2}\relax }{figure.caption.48}{}}
\@writefile{toc}{\contentsline {section}{\numberline {8.2}Drop Phase}{42}{section.8.2}\protected@file@percent }
\@writefile{toc}{\contentsline {section}{\numberline {8.3}Approach Phase}{42}{section.8.3}\protected@file@percent }
\@writefile{toc}{\contentsline {section}{\numberline {8.4}バブル直径の変化モデル}{42}{section.8.4}\protected@file@percent }
\newlabel{Bubble_Model_true}{{8.1}{42}{バブル直径の変化モデル}{equation.8.4.1}{}}
\newlabel{Bubble_Model_in_Error}{{8.2}{43}{バブル直径の変化モデル}{equation.8.4.2}{}}
\@writefile{toc}{\contentsline {subsection}{\numberline {8.4.1}モデル1}{43}{subsection.8.4.1}\protected@file@percent }
\newlabel{Element_model1}{{8.2}{43}{}{table.caption.50}{}}
\@writefile{lof}{\contentsline {figure}{\numberline {8.2}{\ignorespaces 近似モデル1とデータ\relax }}{43}{figure.caption.51}\protected@file@percent }
\newlabel{Bubble_Model1}{{8.2}{43}{近似モデル1とデータ\relax }{figure.caption.51}{}}
\@writefile{toc}{\contentsline {subsection}{\numberline {8.4.2}モデル2}{43}{subsection.8.4.2}\protected@file@percent }
\newlabel{Element_model2}{{8.3}{44}{}{table.caption.52}{}}
\@writefile{lof}{\contentsline {figure}{\numberline {8.3}{\ignorespaces 近似モデル2とデータ\relax }}{44}{figure.caption.53}\protected@file@percent }
\newlabel{Bubble_Model2}{{8.3}{44}{近似モデル2とデータ\relax }{figure.caption.53}{}}
\@writefile{toc}{\contentsline {subsection}{\numberline {8.4.3}モデル3}{44}{subsection.8.4.3}\protected@file@percent }
\newlabel{Element_model3}{{8.4}{44}{}{table.caption.54}{}}
\@writefile{toc}{\contentsline {subsection}{\numberline {8.4.4}モデル4}{44}{subsection.8.4.4}\protected@file@percent }
\newlabel{Element_model4}{{8.5}{44}{}{table.caption.56}{}}
\@writefile{lof}{\contentsline {figure}{\numberline {8.4}{\ignorespaces 近似モデル3とデータ\relax }}{45}{figure.caption.55}\protected@file@percent }
\newlabel{Bubble_Model3}{{8.4}{45}{近似モデル3とデータ\relax }{figure.caption.55}{}}
\@writefile{lof}{\contentsline {figure}{\numberline {8.5}{\ignorespaces 近似モデル4とデータ\relax }}{45}{figure.caption.57}\protected@file@percent }
\newlabel{Bubble_Model4}{{8.5}{45}{近似モデル4とデータ\relax }{figure.caption.57}{}}
\@writefile{toc}{\contentsline {subsection}{\numberline {8.4.5}モデル5}{45}{subsection.8.4.5}\protected@file@percent }
\newlabel{Element_model5}{{8.6}{45}{}{table.caption.58}{}}
\@writefile{lof}{\contentsline {figure}{\numberline {8.6}{\ignorespaces 近似モデル5とデータ\relax }}{46}{figure.caption.59}\protected@file@percent }
\newlabel{Bubble_Model5}{{8.6}{46}{近似モデル5とデータ\relax }{figure.caption.59}{}}
\@writefile{toc}{\contentsline {subsection}{\numberline {8.4.6}モデル2から5}{46}{subsection.8.4.6}\protected@file@percent }
\@writefile{lof}{\contentsline {figure}{\numberline {8.7}{\ignorespaces モデル2から５を時系列に沿って示した場合 \relax }}{46}{figure.caption.60}\protected@file@percent }
\newlabel{Bubble_Model2to5}{{8.7}{46}{モデル2から５を時系列に沿って示した場合 \relax }{figure.caption.60}{}}
\@writefile{toc}{\contentsline {section}{\numberline {8.5}Drop Phaseにおける経路決定指標}{46}{section.8.5}\protected@file@percent }
\@writefile{lof}{\contentsline {figure}{\numberline {8.8}{\ignorespaces バブル間のCaging Margin\relax }}{47}{figure.caption.61}\protected@file@percent }
\newlabel{Caging_Margin}{{8.8}{47}{バブル間のCaging Margin\relax }{figure.caption.61}{}}
\newlabel{EQ_VER_APPRO}{{8.3}{47}{Drop Phaseにおける経路決定指標}{equation.8.5.3}{}}
\newlabel{EQ_MEAN_APPRO}{{8.4}{47}{Drop Phaseにおける経路決定指標}{equation.8.5.4}{}}
\@writefile{toc}{\contentsline {subsection}{\numberline {8.5.1}経路決定の問題}{47}{subsection.8.5.1}\protected@file@percent }
\@writefile{toc}{\contentsline {subsection}{\numberline {8.5.2}経路選択の条件}{47}{subsection.8.5.2}\protected@file@percent }
\newlabel{Def_Delta}{{8.5}{47}{経路選択の条件}{equation.8.5.5}{}}
\newlabel{Wait_time}{{8.7}{48}{経路選択の条件}{equation.8.5.7}{}}
\newlabel{Eval_func}{{8.10}{48}{経路選択の条件}{equation.8.5.10}{}}
\@writefile{toc}{\contentsline {section}{\numberline {8.6}Drop Phaseにおける経路選択の指標}{48}{section.8.6}\protected@file@percent }
\@writefile{toc}{\contentsline {subsection}{\numberline {8.6.1}モデル1を用いた計算検討の結果}{48}{subsection.8.6.1}\protected@file@percent }
\@writefile{toc}{\contentsline {subsection}{\numberline {8.6.2}Waypoint 及び Drop pointの設定}{48}{subsection.8.6.2}\protected@file@percent }
\newlabel{Original Path}{{8.9a}{49}{Subfigure 8 8.9a}{subfigure.8.9.1}{}}
\newlabel{sub@Original Path}{{(a)}{a}{Subfigure 8 8.9a\relax }{subfigure.8.9.1}{}}
\newlabel{Optimized Path}{{8.9b}{49}{Subfigure 8 8.9b}{subfigure.8.9.2}{}}
\newlabel{sub@Optimized Path}{{(b)}{b}{Subfigure 8 8.9b\relax }{subfigure.8.9.2}{}}
\newlabel{Coop_Formation}{{8.9}{49}{}{figure.caption.62}{}}
\@writefile{lot}{\contentsline {table}{\numberline {8.7}{\ignorespaces Original plan\relax }}{49}{table.caption.63}\protected@file@percent }
\@writefile{lot}{\contentsline {table}{\numberline {8.8}{\ignorespaces Optimized plan\relax }}{49}{table.caption.63}\protected@file@percent }
\@writefile{toc}{\contentsline {subsection}{\numberline {8.6.3}各経路及び所要時間}{49}{subsection.8.6.3}\protected@file@percent }
\newlabel{XXXXX}{{8.9}{49}{}{table.caption.66}{}}
\@writefile{lot}{\contentsline {table}{\numberline {8.10}{\ignorespaces Original plan\relax }}{49}{table.caption.68}\protected@file@percent }
\@writefile{lot}{\contentsline {table}{\numberline {8.11}{\ignorespaces Optimized plan\relax }}{49}{table.caption.68}\protected@file@percent }
\newlabel{Coop_Formationtable}{{\caption@xref {Coop_Formationtable}{ on input line 377}}{49}{各経路及び所要時間}{table.caption.68}{}}
\@writefile{lof}{\contentsline {figure}{\numberline {8.10}{\ignorespaces Waypoint及びDroppoit\relax }}{50}{figure.caption.64}\protected@file@percent }
\newlabel{Points}{{8.10}{50}{Waypoint及びDroppoit\relax }{figure.caption.64}{}}
\@writefile{toc}{\contentsline {subsection}{\numberline {8.6.4}解析}{50}{subsection.8.6.4}\protected@file@percent }
\newlabel{Bubble1}{{8.11a}{51}{Subfigure 8 8.11a}{subfigure.8.11.1}{}}
\newlabel{sub@Bubble1}{{(a)}{a}{Subfigure 8 8.11a\relax }{subfigure.8.11.1}{}}
\newlabel{Bubble2}{{8.11b}{51}{Subfigure 8 8.11b}{subfigure.8.11.2}{}}
\newlabel{sub@Bubble2}{{(b)}{b}{Subfigure 8 8.11b\relax }{subfigure.8.11.2}{}}
\newlabel{Bubble3}{{8.11c}{51}{Subfigure 8 8.11c}{subfigure.8.11.3}{}}
\newlabel{sub@Bubble3}{{(c)}{c}{Subfigure 8 8.11c\relax }{subfigure.8.11.3}{}}
\newlabel{Bubble4}{{8.11d}{51}{Subfigure 8 8.11d}{subfigure.8.11.4}{}}
\newlabel{sub@Bubble4}{{(d)}{d}{Subfigure 8 8.11d\relax }{subfigure.8.11.4}{}}
\newlabel{Drop_Phase_Bubble_Trajectry}{{8.11}{51}{}{figure.caption.65}{}}
\newlabel{Original Path}{{8.12a}{51}{Subfigure 8 8.12a}{subfigure.8.12.1}{}}
\newlabel{sub@Original Path}{{(a)}{a}{Subfigure 8 8.12a\relax }{subfigure.8.12.1}{}}
\newlabel{Optimized Path}{{8.12b}{51}{Subfigure 8 8.12b}{subfigure.8.12.2}{}}
\newlabel{sub@Optimized Path}{{(b)}{b}{Subfigure 8 8.12b\relax }{subfigure.8.12.2}{}}
\newlabel{Coop_Formation}{{8.12}{51}{}{figure.caption.67}{}}
\newlabel{Original}{{8.13a}{52}{Subfigure 8 8.13a}{subfigure.8.13.1}{}}
\newlabel{sub@Original}{{(a)}{a}{Subfigure 8 8.13a\relax }{subfigure.8.13.1}{}}
\newlabel{Planned}{{8.13b}{52}{Subfigure 8 8.13b}{subfigure.8.13.2}{}}
\newlabel{sub@Planned}{{(b)}{b}{Subfigure 8 8.13b\relax }{subfigure.8.13.2}{}}
\newlabel{Result of path planning}{{8.13}{52}{}{figure.caption.69}{}}
\@writefile{toc}{\contentsline {section}{\numberline {8.7}まとめ}{53}{section.8.7}\protected@file@percent }
\@writefile{toc}{\contentsline {chapter}{\numberline {第9章}まとめ}{55}{chapter.9}\protected@file@percent }
\@writefile{lof}{\addvspace {10\jsc@mpt }}
\@writefile{lot}{\addvspace {10\jsc@mpt }}
\@writefile{toc}{\contentsline {section}{\numberline {9.1}結言}{55}{section.9.1}\protected@file@percent }
\@writefile{toc}{\contentsline {section}{\numberline {9.2}今後の課題}{56}{section.9.2}\protected@file@percent }
\@writefile{toc}{\contentsline {chapter}{謝辞}{57}{chapter*.70}\protected@file@percent }
\bibcite{Motion_Planning}{1}
\bibcite{Stable_Path}{2}
\bibcite{Dynamic_Coop}{3}
\bibcite{Coop_Multi}{4}
\bibcite{Caging_Planner}{5}
\bibcite{Motion_Push}{6}
\bibcite{Object_Closure}{7}
\bibcite{Caging_Formation}{8}
\bibcite{Dynamic_ObjectCloser}{9}
\bibcite{Bubble1}{10}
\bibcite{Rahman1}{11}
\bibcite{Rahman2}{12}
\bibcite{Noboru1}{13}
\bibcite{Noboru}{14}
\@writefile{toc}{\contentsline {chapter}{参考文献}{59}{chapter*.71}\protected@file@percent }
\bibcite{Magariyama}{15}
\bibcite{Binarize}{16}
\bibcite{Otsu}{17}
\bibcite{Matlab}{18}
\bibcite{IMGPro}{19}
\bibcite{IMGTool}{20}
\bibcite{RGB2G}{21}
\bibcite{Hample}{22}
\bibcite{Adaptive}{23}
\bibcite{Dynamic_Caging}{24}
\bibcite{Grasp1}{25}
\bibcite{Grasp2}{26}
\bibcite{Pushing1}{27}
\@writefile{toc}{\contentsline {chapter}{\numberline {付録A}マイクロバブルロボットによる力制御の提案}{61}{appendix.A}\protected@file@percent }
\@writefile{lof}{\addvspace {10\jsc@mpt }}
\@writefile{lot}{\addvspace {10\jsc@mpt }}
\@writefile{toc}{\contentsline {subsection}{\numberline {A.0.1}レーザ照射により発生する像}{61}{subsection.A.0.1}\protected@file@percent }
\@writefile{toc}{\contentsline {subsection}{\numberline {A.0.2}力制御の可能性}{61}{subsection.A.0.2}\protected@file@percent }
\@writefile{lof}{\contentsline {figure}{\numberline {A.1}{\ignorespaces レーザ照射像と検出中心\relax }}{61}{figure.caption.72}\protected@file@percent }
\newlabel{C2C_IMG1}{{A.1}{61}{レーザ照射像と検出中心\relax }{figure.caption.72}{}}
\@writefile{toc}{\contentsline {chapter}{\numberline {付録B}Object Closure算出の簡略化}{63}{appendix.B}\protected@file@percent }
\@writefile{lof}{\addvspace {10\jsc@mpt }}
\@writefile{lot}{\addvspace {10\jsc@mpt }}
\@writefile{toc}{\contentsline {subsection}{\numberline {B.0.1}簡略化手法}{63}{subsection.B.0.1}\protected@file@percent }
\@writefile{lof}{\contentsline {figure}{\numberline {B.1}{\ignorespaces Object Closure と 擬似Object Closure\relax }}{63}{figure.caption.73}\protected@file@percent }
\newlabel{Pseudo_OC}{{B.1}{63}{Object Closure と 擬似Object Closure\relax }{figure.caption.73}{}}
\@writefile{toc}{\contentsline {subsection}{\numberline {B.0.2}簡略化により生ずる幾何学的な計算誤差}{63}{subsection.B.0.2}\protected@file@percent }
\@writefile{lof}{\contentsline {figure}{\numberline {B.2}{\ignorespaces 擬似Object ClosureのとObject Closureの計算差\relax }}{64}{figure.caption.74}\protected@file@percent }
\newlabel{Pseudo_OCErr}{{B.2}{64}{擬似Object ClosureのとObject Closureの計算差\relax }{figure.caption.74}{}}
\@writefile{lof}{\contentsline {figure}{\numberline {B.3}{\ignorespaces 角度とErrorの変化\relax }}{64}{figure.caption.75}\protected@file@percent }
\newlabel{DeltaR_Gtaph}{{B.3}{64}{角度とErrorの変化\relax }{figure.caption.75}{}}
